Q00:O00
Q01:O01
Q02:B01
Q03:M06
W00:M01
W01:M00
W02:M03
W03:M02
W04:H05
W05:M06
W06:M06
W07:M06
W08:M08
E00:H01
E01:H06
E02:H02
E03:H02
E04:B02
E05:M04
E06:M05
E07:M05
E08:M04
R00:B00
R01:B01
R02:B02
R03:B03
R04:M08
R05:M05

AbrilFatface-Regular Q00:O00 , Q01:O01 , Q02:B01 , Q03:M06 , W00:M01 , W01:M00 , W02:M03 , W03:M02 , W04:H05 , W05:M06 , W06:M06 , W07:M06 , W08:M08 , E00:H01 , E01:H06 , E02:H02 , E03:H02 , E04:B02 , E05:M04 , E06:M05 , E07:M05 , E08:M04 , R00:B00 , R01:B01 , R02:B02 , R03:B03 , R04:M08 , R05:M05 , T00:B00 , T01:H06 , T02:H03 , T03:H04 , T04:B03 , Y00:M01 , Y01:M02 , Y02:B00 , Y03:M04 , Y04:H06 , Y05:H04 , U00:B00 , U01:O00 , U02:H06 , U03:M05 , I00:H00 , I01:H06 , I02:H04 , P00:H01 , P01:B02 , P02:B03 , P03:H06 , A00:M02 , A01:B00 , A02:H02 , A03:M06 , A04:H03 , A05:M08 , S00:B02 , S01:H04 , S02:O00 , D00:H01 , D01:B02 , D02:B03 , D03:H03 , F00:B00 , F01:H02 , F02:H02 , F03:H03 , F04:H03 , F05:M04 , F06:M05 , G00:B01 , G01:H01 , G02:H04 , G03:B02 , J00:H01 , J01:B02 , J02:H03 , K00:B00 , K01:M02 , K02:M01 , K03:H03 , K04:M08 , K05:H03 , K06:B04 , L00:H01 , L01:H02 , L02:H06 , L03:H06 , L04:M07 , Z00:B01 , Z01:H01 , Z02:H02 , Z03:B03 , Z04:B03 , X00:H01 , X01:M02 , X02:M02 , X03:M07 , X04:H04 , X05:H05 , X06:H03 , C00:O01 , C01:B01 , C02:H04 , V00:H01 , V01:M02 , V02:H04 , V03:M06 , V04:H06 , N00:M00 , N01:M01 , N02:M00 , N03:M04 , N04:M05 , N05:M06 , N06:M04 ,----------------------------------------------------------------------
Adamina-Regular 'Q00:O00', 'Q01:O01', 'Q02:B01', 'Q03:M06', 'W00:M03', 'W01:M02', 'W02:M01', 'W03:M02', 'W04:M08', 'W05:M06', 'W06:M06', 'W07:M06', 'W08:M05', 'E00:H00', 'E01:H02', 'E02:H02', 'E03:H02', 'E04:H05', 'E05:B03', 'E06:M07', 'E07:M05', 'E08:M05', 'R00:H01', 'R01:B01', 'R02:B01', 'R03:B03', 'R04:H04', 'R05:B04', 'T00:B00', 'T01:H02', 'T02:M04', 'T03:H04', 'T04:B04', 'Y00:M01', 'Y01:M02', 'Y02:H01', 'Y03:H05', 'Y04:H05', 'Y05:M08', 'U00:H01', 'U01:M00', 'U02:H04', 'U03:H03', 'I00:H01', 'I01:H05', 'I02:H04', 'P00:B00', 'P01:B01', 'P02:B03', 'P03:H06', 'A00:M00', 'A01:H01', 'A02:H02', 'A03:M06', 'A04:H06', 'A05:H06', 'S00:O00', 'S01:B02', 'S02:B02', 'D00:B00', 'D01:B02', 'D02:H03', 'D03:H03', 'F00:H01', 'F01:H02', 'F02:H02', 'F03:H05', 'F04:M08', 'F05:M04', 'F06:H04', 'G00:O00', 'G01:M03', 'G02:H05', 'G03:B02', 'J00:H01', 'J01:B01', 'J02:H05', 'K00:H00', 'K01:M02', 'K02:M01', 'K03:H06', 'K04:H04', 'K05:M05', 'K06:M05', 'L00:H00', 'L01:H02', 'L02:H03', 'L03:B03', 'L04:M07', 'Z00:H02', 'Z01:M01', 'Z02:H02', 'Z03:B04', 'Z04:M04', 'X00:H00', 'X01:M02', 'X02:M02', 'X03:M08', 'X04:H05', 'X05:M05', 'X06:H03', 'C00:O01', 'C01:B03', 'C02:B03', 'V00:M03', 'V01:M02', 'V02:M08', 'V03:M06', 'V04:M05', 'N00:M00', 'N01:M01', 'N02:M00', 'N03:H06', 'N04:H06', 'N05:M06', 'N06:H00',