<?xml version="1.0" encoding="UTF-8" standalone="no"?>
<!-- Created with Inkscape (http://www.inkscape.org/) -->

<svg
   xmlns:dc="http://purl.org/dc/elements/1.1/"
   xmlns:cc="http://creativecommons.org/ns#"
   xmlns:rdf="http://www.w3.org/1999/02/22-rdf-syntax-ns#"
   xmlns:svg="http://www.w3.org/2000/svg"
   xmlns="http://www.w3.org/2000/svg"
   version="1.1"
   width="400"
   height="400"
   viewBox="0 0 100 100"
   id="svg2"
   style="text-anchor:middle;fill:none;stroke:#000000;stroke-width:0.5pt;stroke-linejoin:round">
  <metadata
     id="metadata13">
    <rdf:RDF>
      <cc:Work
         rdf:about="">
        <dc:format>image/svg+xml</dc:format>
        <dc:type
           rdf:resource="http://purl.org/dc/dcmitype/StillImage" />
        <dc:title></dc:title>
      </cc:Work>
    </rdf:RDF>
  </metadata>
  <defs
     id="defs11" />
  <g
     id="paths">
    <path
       d="M 3.3898305,73.155182 C 297.36037,73.582549 586.85953,35.193663 859.33429,34.567838 1139.3643,32.379037 1412.7516,66.748641 1677.3,65.976885"
       id="path5"
       style="stroke-width:0.625" />
    <path
       d="M 0.93521474,71.425013 C 579.72676,76.516369 857.55207,-2.6316847 1277.6916,-0.90949634 1702.8654,0.83332818 2250.0965,74.688702 2549.54,69.973378"
       id="path7"
       style="stroke:#000000;stroke-width:2.5;stroke-miterlimit:4;stroke-opacity:1;stroke-dasharray:none" />
  </g>
</svg>
